{
  "bindings": [
    {
      "authLevel": "anonymous",
      "name": "req",
      "type": "httpTrigger",
      "direction": "in",
      "methods": [
        "get",
        "post"
      ]
    },
    {
      "name": "$return",
      "type": "http",
      "direction": "out"
    },
    {
      "type": "twilioSms",
      "name": "message",
      "accountSidSetting": "TwilioAccountSid",
      "authTokenSetting": "TwilioAuthToken",
      "from": " +18434924224",
      "direction": "out"
    }
  ],
  "disabled": false
}